{
  "result": {
    "item": "lucraftcore:dust_adamantium"
  },
  "ingredients": [
    {
      "item": "lucraftcore:hammer",
      "data": 32767
    },
    {
      "item": "#INGOTADAMANTIUM"
    }
  ],
  "conditions": [
    {
      "item": "lucraftcore:dust_adamantium",
      "type": "minecraft:item_exists"
    },
    {
      "item": "lucraftcore:hammer",
      "type": "minecraft:item_exists"
    }
  ],
  "type": "forge:ore_shapeless",
  "group": "lucraftcore:ingot_to_dust"
}