{
  "result": {
    "item": "lucraftcore:plate_steel"
  },
  "ingredients": [
    {
      "item": "lucraftcore:hammer",
      "data": 32767
    },
    {
      "item": "#INGOTSTEEL"
    },
    {
      "item": "lucraftcore:ingot_steel"
    }
  ],
  "conditions": [
    {
      "item": "lucraftcore:plate_steel",
      "type": "minecraft:item_exists"
    },
    {
      "item": "lucraftcore:hammer",
      "type": "minecraft:item_exists"
    },
    {
      "item": "lucraftcore:ingot_steel",
      "type": "minecraft:item_exists"
    }
  ],
  "type": "forge:ore_shapeless",
  "group": "lucraftcore:ingots_to_plate"
}