{
  "result": {
    "item": "lucraftcore:plate_silver"
  },
  "ingredients": [
    {
      "item": "lucraftcore:hammer",
      "data": 32767
    },
    {
      "item": "#INGOTSILVER"
    },
    {
      "item": "lucraftcore:ingot_silver"
    }
  ],
  "conditions": [
    {
      "item": "lucraftcore:plate_silver",
      "type": "minecraft:item_exists"
    },
    {
      "item": "lucraftcore:hammer",
      "type": "minecraft:item_exists"
    },
    {
      "item": "lucraftcore:ingot_silver",
      "type": "minecraft:item_exists"
    }
  ],
  "type": "forge:ore_shapeless",
  "group": "lucraftcore:ingots_to_plate"
}