{
  "forge_marker": 1,
  "defaults": {
    "model": "builtin/generated",
    "textures": {
      "layer0": "blocks/dirt"
    },
    "transform": "forge:default-item"
  },
  "variants": {
    "iron": [
      {
        "textures": {
          "layer0": "lucraftcore:items/wiring/iron"
        }
      }
    ],
    "gold": [
      {
        "textures": {
          "layer0": "lucraftcore:items/wiring/gold"
        }
      }
    ],
    "copper": [
      {
        "textures": {
          "layer0": "lucraftcore:items/wiring/copper"
        }
      }
    ],
    "tin": [
      {
        "textures": {
          "layer0": "lucraftcore:items/wiring/tin"
        }
      }
    ],
    "nickel": [
      {
        "textures": {
          "layer0": "lucraftcore:items/wiring/nickel"
        }
      }
    ],
    "lead": [
      {
        "textures": {
          "layer0": "lucraftcore:items/wiring/lead"
        }
      }
    ],
    "silver": [
      {
        "textures": {
          "layer0": "lucraftcore:items/wiring/silver"
        }
      }
    ],
    "palladium": [
      {
        "textures": {
          "layer0": "lucraftcore:items/wiring/palladium"
        }
      }
    ],
    "titanium": [
      {
        "textures": {
          "layer0": "lucraftcore:items/wiring/titanium"
        }
      }
    ],
    "vibranium": [
      {
        "textures": {
          "layer0": "lucraftcore:items/wiring/vibranium"
        }
      }
    ],
    "osmium": [
      {
        "textures": {
          "layer0": "lucraftcore:items/wiring/osmium"
        }
      }
    ],
    "iridium": [
      {
        "textures": {
          "layer0": "lucraftcore:items/wiring/iridium"
        }
      }
    ],
    "dwarf_star_alloy": [
      {
        "textures": {
          "layer0": "lucraftcore:items/wiring/dwarf_star_alloy"
        }
      }
    ],
    "bronze": [
      {
        "textures": {
          "layer0": "lucraftcore:items/wiring/bronze"
        }
      }
    ],
    "gold_titanium_alloy": [
      {
        "textures": {
          "layer0": "lucraftcore:items/wiring/gold_titanium_alloy"
        }
      }
    ],
    "intertium": [
      {
        "textures": {
          "layer0": "lucraftcore:items/wiring/intertium"
        }
      }
    ],
    "uranium": [
      {
        "textures": {
          "layer0": "lucraftcore:items/radiation",
          "layer1": "lucraftcore:items/wiring/uranium"
        }
      }
    ],
    "steel": [
      {
        "textures": {
          "layer0": "lucraftcore:items/wiring/steel"
        }
      }
    ],
    "adamantium": [
      {
        "textures": {
          "layer0": "lucraftcore:items/wiring/adamantium"
        }
      }
    ]
  }
}