{
    "parent": "block/orientable",
    "textures": {
        "top": "lucraftcore:blocks/machine_top",
        "front": "lucraftcore:blocks/furnace_generator_front",
        "side": "lucraftcore:blocks/machine_side"
    }
}
